<svg fill="none" xmlns="http://www.w3.org/2000/svg" viewBox="0 0 150 50">
  <path
    d="m0 33.823 5.61-2.104c1.28 2.724 3.507 4.62 6.147 4.62 2.6 0 4.331-.99 4.331-2.97 0-2.021-2.475-2.805-5.486-3.75-4.331-1.402-9.447-3.016-9.447-9.039 0-4.455 3.672-8.168 10.107-8.168 5.322 0 8.911 3.136 10.026 7.22l-5.611 1.815a4.763 4.763 0 0 0-4.744-3.095c-2.269 0-3.507.825-3.507 2.352 0 1.485 2.232 2.187 4.91 3.094 4.376 1.403 10.026 3.214 10.026 9.612 0 5.611-4.745 8.87-10.767 8.87A11.705 11.705 0 0 1 0 33.823ZM37.953 40.217a6.555 6.555 0 0 1-5.239 2.063c-4.455 0-7.92-2.31-7.92-6.932 0-4.621 4.375-6.765 8.54-6.765a10.91 10.91 0 0 1 4.62.743V28.17c0-1.98-1.361-2.971-3.424-2.971a11.927 11.927 0 0 0-6.763 2.229l-1.856-4.58a16.172 16.172 0 0 1 9.034-2.64c3.92 0 8.952.99 8.952 8.25v13.326h-5.94l-.004-1.568Zm0-4.455v-1.898a12.375 12.375 0 0 0-3.588-.493c-2.062 0-3.712.496-3.712 2.022 0 1.154 1.154 1.856 3.214 1.856a6.328 6.328 0 0 0 4.084-1.485M53.148 12l-5.012 2.813v27.054h5.012V12ZM56.27 31.224c0-6.766 3.878-11.015 10.026-11.015 5.321 0 9.488 3.214 9.488 9.983a21.315 21.315 0 0 1-.165 3.093h-13.49c.124 2.805 1.938 3.919 4.167 3.919a5.556 5.556 0 0 0 4.743-2.223l3.465 3.465a10.134 10.134 0 0 1-8.21 3.84c-6.228-.007-10.023-4.132-10.023-11.062Zm13.78-2.434c-.29-2.227-1.528-3.506-4.003-3.506a3.712 3.712 0 0 0-3.877 3.506h7.88ZM77.228 38.279l3.84-3.26a7.91 7.91 0 0 0 4.992 2.352c1.733 0 2.928-.454 2.928-1.65 0-1.032-1.071-1.527-3.589-2.475-4.827-1.608-7.467-3.215-7.467-7.054 0-3.84 3.59-5.982 7.838-5.982a10.269 10.269 0 0 1 7.921 3.507l-3.88 3.177a5.393 5.393 0 0 0-4.043-1.774c-1.485 0-2.475.453-2.475 1.361 0 .95 1.939 1.774 4.125 2.31 3.135 1.031 6.93 2.517 6.93 6.931 0 4.208-3.341 6.56-8.457 6.56-3.465 0-6.93-1.569-8.66-4.002M101.155 41.785h-3.509l3.177-17.946H97.52l.535-3.135h3.304l.66-3.671c.663-3.63 2.891-4.664 5.283-4.664a6.811 6.811 0 0 1 3.548 1.032l-.536 2.97a5.727 5.727 0 0 0-2.768-.784c-1.484 0-1.939 1.114-2.142 2.232l-.536 2.888h4.62l-.535 3.135h-4.621l-3.177 17.943Zm12.583-21.08h3.462l-3.71 21.08h-3.465l3.713-21.08Zm.577-5.736a2.624 2.624 0 0 1 2.475-2.6 1.813 1.813 0 0 1 1.766 1.129c.093.23.138.479.132.728a2.63 2.63 0 0 1-2.517 2.599 1.824 1.824 0 0 1-1.857-1.857M121.782 20.701h3.465l-.495 2.723a7.279 7.279 0 0 1 5.611-3.214 3.981 3.981 0 0 1 2.764 1.027l-1.072 3.342a4.406 4.406 0 0 0-2.723-.904c-1.774 0-4.827 1.401-5.693 6.23l-2.104 11.881h-3.465l3.712-21.085ZM131.889 33.41c0-7.342 4.415-13.2 10.767-13.2 4.415 0 7.344 2.475 7.344 7.961a14.117 14.117 0 0 1-.784 4.456h-13.737v.535c0 3.713 1.65 5.94 4.579 5.94a8.02 8.02 0 0 0 4.827-1.814l1.647 2.476a10.845 10.845 0 0 1-6.889 2.516c-4.825 0-7.754-3.712-7.754-8.87Zm14.522-3.839a7.429 7.429 0 0 0 .165-1.815c-.082-3.424-2.104-4.414-4.125-4.414-3.672 0-5.735 2.97-6.477 6.23h10.437Z"
    fill="#000" />
</svg>
