{
  "default": {
    "name": "Ted Lasso",
    "avatar": "/images/authors/ted-lasso.jpg"
  },
  "ted-lasso": {
    "name": "Ted Lasso",
    "avatar": "/images/authors/ted-lasso.jpg"
  },
  "craig-boyle": {
    "name": "Craig Boyle",
    "avatar": "/images/authors/craig-boyle.jpg"
  },
  "team-ibo": {
    "name": "Increment By One Team",
    "avatar": "/images/authors/team-ibo.jpg"
  }
}
