<svg width="260" height="260" viewBox="0 0 260 260" fill="none" xmlns="http://www.w3.org/2000/svg">
<path fill-rule="evenodd" clip-rule="evenodd" d="M199.474 40.3158C199.474 37.5253 197.212 35.2632 194.421 35.2632H128.737C125.946 35.2632 123.684 37.5253 123.684 40.3158V80.7369C123.684 83.5274 121.422 85.7895 118.632 85.7895H78.2106C75.4201 85.7895 73.158 88.0516 73.158 90.8421V156.526C73.158 159.317 75.4201 161.579 78.2106 161.579H118.632C121.422 161.579 123.684 163.841 123.684 166.632V207.053C123.684 209.843 125.946 212.105 128.737 212.105H194.421C197.212 212.105 199.474 209.843 199.474 207.053V166.632C199.474 163.841 201.736 161.579 204.526 161.579H244.947C247.738 161.579 250 159.317 250 156.526V90.8421C250 88.0516 247.738 85.7895 244.947 85.7895H204.526C201.736 85.7895 199.474 83.5274 199.474 80.7369V40.3158ZM164.105 161.579C166.896 161.579 169.158 159.317 169.158 156.526V136.316C169.158 133.525 171.42 131.263 174.211 131.263H194.421C197.212 131.263 199.474 129.001 199.474 126.211V121.158C199.474 118.367 197.212 116.105 194.421 116.105H174.211C171.42 116.105 169.158 113.843 169.158 111.053V90.8421C169.158 88.0516 166.896 85.7895 164.105 85.7895H159.053C156.262 85.7895 154 88.0516 154 90.8421V111.053C154 113.843 151.738 116.105 148.947 116.105H128.737C125.946 116.105 123.684 118.367 123.684 121.158V126.211C123.684 129.001 125.946 131.263 128.737 131.263H148.947C151.738 131.263 154 133.525 154 136.316V156.526C154 159.317 156.262 161.579 159.053 161.579H164.105Z" fill="white"/>
<path fill-rule="evenodd" clip-rule="evenodd" d="M199.474 40.3158C199.474 37.5253 197.212 35.2632 194.421 35.2632H128.737C125.946 35.2632 123.684 37.5253 123.684 40.3158V80.7369C123.684 83.5274 121.422 85.7895 118.632 85.7895H78.2106C75.4201 85.7895 73.158 88.0516 73.158 90.8421V156.526C73.158 159.317 75.4201 161.579 78.2106 161.579H118.632C121.422 161.579 123.684 163.841 123.684 166.632V207.053C123.684 209.843 125.946 212.105 128.737 212.105H194.421C197.212 212.105 199.474 209.843 199.474 207.053V166.632C199.474 163.841 201.736 161.579 204.526 161.579H244.947C247.738 161.579 250 159.317 250 156.526V90.8421C250 88.0516 247.738 85.7895 244.947 85.7895H204.526C201.736 85.7895 199.474 83.5274 199.474 80.7369V40.3158ZM164.105 161.579C166.896 161.579 169.158 159.317 169.158 156.526V136.316C169.158 133.525 171.42 131.263 174.211 131.263H194.421C197.212 131.263 199.474 129.001 199.474 126.211V121.158C199.474 118.367 197.212 116.105 194.421 116.105H174.211C171.42 116.105 169.158 113.843 169.158 111.053V90.8421C169.158 88.0516 166.896 85.7895 164.105 85.7895H159.053C156.262 85.7895 154 88.0516 154 90.8421V111.053C154 113.843 151.738 116.105 148.947 116.105H128.737C125.946 116.105 123.684 118.367 123.684 121.158V126.211C123.684 129.001 125.946 131.263 128.737 131.263H148.947C151.738 131.263 154 133.525 154 136.316V156.526C154 159.317 156.262 161.579 159.053 161.579H164.105Z" fill="url(#paint0_radial_1_169)" style="mix-blend-mode:screen"/>
<path opacity="0.7" d="M60.5264 179.263C60.5264 176.472 62.7885 174.21 65.579 174.21H106C108.791 174.21 111.053 176.472 111.053 179.263V219.684C111.053 222.474 108.791 224.737 106 224.737H65.579C62.7885 224.737 60.5264 222.474 60.5264 219.684V179.263Z" fill="white"/>
<path opacity="0.5" d="M10 116.105C10 113.315 12.2621 111.053 15.0526 111.053H55.4737C58.2642 111.053 60.5263 113.315 60.5263 116.105V156.526C60.5263 159.317 58.2642 161.579 55.4737 161.579H15.0526C12.2621 161.579 10 159.317 10 156.526V116.105Z" fill="white"/>
<path opacity="0.3" d="M22.6316 179.263C22.6316 176.472 24.8937 174.21 27.6842 174.21H42.8421C45.6326 174.21 47.8947 176.472 47.8947 179.263V194.421C47.8947 197.211 45.6326 199.473 42.8421 199.473H27.6842C24.8937 199.473 22.6316 197.211 22.6316 194.421V179.263Z" fill="white"/>
<defs>
<radialGradient id="paint0_radial_1_169" cx="0" cy="0" r="1" gradientUnits="userSpaceOnUse" gradientTransform="translate(218.421 35.2632) rotate(121.264) scale(206.884 251.045)">
<stop stop-color="#828282"/>
<stop offset="1"/>
</radialGradient>
</defs>
</svg>
