<svg fill="none" xmlns="http://www.w3.org/2000/svg" viewBox="0 0 443 830">
  <path opacity=".3"
    d="M193 360c0-11.046 8.954-20 20-20h60c11.046 0 20 8.954 20 20v60c0 11.046-8.954 20-20 20h-60c-11.046 0-20-8.954-20-20v-60Z"
    fill="#8F5AFF" />
  <g opacity=".7">
    <path
      d="M253 500c0-11.046 8.954-20 20-20h80c11.046 0 20 8.954 20 20v80c0 11.046-8.954 20-20 20h-80c-11.046 0-20-8.954-20-20v-80Z"
      fill="#8F5AFF" />
    <path
      d="M253 500c0-11.046 8.954-20 20-20h80c11.046 0 20 8.954 20 20v80c0 11.046-8.954 20-20 20h-80c-11.046 0-20-8.954-20-20v-80Z"
      fill="url(#a)" style="mix-blend-mode:screen" />
  </g>
  <path opacity=".4"
    d="M60 360c0-11.046 8.954-20 20-20h40c11.046 0 20 8.954 20 20v40c0 11.046-8.954 20-20 20H80c-11.046 0-20-8.954-20-20v-40Z"
    fill="#8F5AFF" />
  <path opacity=".3"
    d="M133 720c0-11.046 8.954-20 20-20h40c11.046 0 20 8.954 20 20v40c0 11.046-8.954 20-20 20h-40c-11.046 0-20-8.954-20-20v-40Z"
    fill="#8F5AFF" />
  <path opacity=".8"
    d="M33 500c0-11.046 8.954-20 20-20h140c11.046 0 20 8.954 20 20v140c0 11.046-8.954 20-20 20H53c-11.046 0-20-8.954-20-20V500Z"
    fill="#8F5AFF" />
  <path opacity=".1"
    d="M253 660c0-11.046 8.954-20 20-20h150c11.046 0 20 8.954 20 20v150c0 11.046-8.954 20-20 20H273c-11.046 0-20-8.954-20-20V660Z"
    fill="url(#b)" />
  <path opacity=".05"
    d="M0 100c0-11.046 8.954-20 20-20h60c11.046 0 20 8.954 20 20v60c0 11.046-8.954 20-20 20H20c-11.046 0-20-8.954-20-20v-60Z"
    fill="#8F5AFF" />
  <path
    d="M140 20c0-11.046 8.954-20 20-20h260c11.045 0 20 8.954 20 20v260c0 11.046-8.955 20-20 20H160c-11.046 0-20-8.954-20-20V20Z"
    fill="url(#c)" />
  <defs>
    <linearGradient id="b" x1="253" y1="735" x2="443" y2="735" gradientUnits="userSpaceOnUse">
      <stop stop-color="#8F5AFF" />
      <stop offset="1" stop-color="#52339F" />
    </linearGradient>
    <linearGradient id="c" x1="140" y1="150" x2="440" y2="150" gradientUnits="userSpaceOnUse">
      <stop stop-color="#8F5AFF" />
      <stop offset="1" stop-color="#52339F" />
    </linearGradient>
    <radialGradient id="a" cx="0" cy="0" r="1" gradientUnits="userSpaceOnUse"
      gradientTransform="matrix(-72.85783 119.99986 -145.61435 -88.40965 351.571 480)">
      <stop stop-color="#828282" />
      <stop offset="1" />
    </radialGradient>
  </defs>
</svg>
