<svg viewBox="0 0 213 49" xmlns="http://www.w3.org/2000/svg">
  <defs>
    <linearGradient x1="-15.8%" y1="8.4%" x2="154.7%" y2="122.5%" id="a">
      <stop stop-color="#129D91" offset="0%"></stop>
      <stop stop-color="#40A489" offset="20.8%"></stop>
      <stop stop-color="#7DB66E" offset="60.8%"></stop>
      <stop stop-color="#AFCC43" offset="100%"></stop>
    </linearGradient>
    <linearGradient x1="-215.3%" y1="-290.8%" x2="137.4%" y2="163.5%" id="b">
      <stop stop-color="#129D91" offset="0%"></stop>
      <stop stop-color="#40A489" offset="20.8%"></stop>
      <stop stop-color="#7DB66E" offset="60.8%"></stop>
      <stop stop-color="#AFCC43" offset="100%"></stop>
    </linearGradient>
    <linearGradient x1="-29.7%" y1="-154.8%" x2="147.2%" y2="299.4%" id="c">
      <stop stop-color="#129D91" offset="0%"></stop>
      <stop stop-color="#40A489" offset="20.8%"></stop>
      <stop stop-color="#7DB66E" offset="60.8%"></stop>
      <stop stop-color="#AFCC43" offset="100%"></stop>
    </linearGradient>
    <linearGradient x1="-123.4%" y1="-176.4%" x2="222.5%" y2="277.8%" id="d">
      <stop stop-color="#129D91" offset="0%"></stop>
      <stop stop-color="#40A489" offset="20.8%"></stop>
      <stop stop-color="#7DB66E" offset="60.8%"></stop>
      <stop stop-color="#AFCC43" offset="100%"></stop>
    </linearGradient>
    <linearGradient x1="-75.6%" y1="-273%" x2="163.7%" y2="291.3%" id="e">
      <stop stop-color="#129D91" offset="0%"></stop>
      <stop stop-color="#40A489" offset="20.8%"></stop>
      <stop stop-color="#7DB66E" offset="60.8%"></stop>
      <stop stop-color="#AFCC43" offset="100%"></stop>
    </linearGradient>
    <linearGradient x1="-91.8%" y1="-309.8%" x2="147.5%" y2="252.1%" id="f">
      <stop stop-color="#129D91" offset="0%"></stop>
      <stop stop-color="#40A489" offset="20.8%"></stop>
      <stop stop-color="#7DB66E" offset="60.8%"></stop>
      <stop stop-color="#AFCC43" offset="100%"></stop>
    </linearGradient>
    <linearGradient x1="-164.7%" y1="-258.2%" x2="149.2%" y2="200.8%" id="g">
      <stop stop-color="#129D91" offset="0%"></stop>
      <stop stop-color="#40A489" offset="20.8%"></stop>
      <stop stop-color="#7DB66E" offset="60.8%"></stop>
      <stop stop-color="#AFCC43" offset="100%"></stop>
    </linearGradient>
    <linearGradient x1="-134%" y1="-373.9%" x2="125.9%" y2="202.2%" id="h">
      <stop stop-color="#129D91" offset="0%"></stop>
      <stop stop-color="#40A489" offset="20.8%"></stop>
      <stop stop-color="#7DB66E" offset="60.8%"></stop>
      <stop stop-color="#AFCC43" offset="100%"></stop>
    </linearGradient>
    <linearGradient x1="-136.1%" y1="-413.8%" x2="103.2%" y2="148.1%" id="i">
      <stop stop-color="#129D91" offset="0%"></stop>
      <stop stop-color="#40A489" offset="20.8%"></stop>
      <stop stop-color="#7DB66E" offset="60.8%"></stop>
      <stop stop-color="#AFCC43" offset="100%"></stop>
    </linearGradient>
  </defs>
  <g fill-rule="nonzero" fill="none">
    <path
      d="M13.553 27.478c4.871 0 15.247-4.518 17.012-14.894.635-3.671-.071-6.635-1.976-8.824C25.13-.122 18.918-.051 18.424.019H6.353a1.062 1.062 0 00-.988.706L2.259 9.407a.992.992 0 00.141.988c.194.274.512.433.847.424h12.212c.463-.033.92.12 1.271.424.423.7.526 1.548.282 2.329a3.707 3.707 0 01-3.882 2.824H3.812a1.062 1.062 0 00-.988.706s-.212.706-.706 1.906a2.409 2.409 0 101.985 4.103 2.38 2.38 0 00.697-1.703 2.465 2.465 0 00-.706-1.694c.182-.384.324-.787.424-1.2h8.329a5.863 5.863 0 006.141-4.377v-.071a4.838 4.838 0 00-.776-4.235 4.08 4.08 0 00-2.965-1.129H4.659l2.47-6.495h11.365c.071 0 5.718-.212 8.541 3.035 1.482 1.694 1.976 4.024 1.482 7.059-1.553 9.318-11.153 13.059-14.894 13.059H1.059a.946.946 0 00-.918.565c-.153.367-.127.784.071 1.129l12.494 18.142c.208.268.511.445.847.494l12.282.141a.946.946 0 00.918-.565c.189-.36.162-.795-.071-1.129L18.635 32.49a2.96 2.96 0 00.282-1.129 2.4 2.4 0 10-2.4 2.4.9.9 0 00.424-.071l6.918 9.882-9.741-.071L3.106 27.478h10.447z"
      fill="url(#a)"></path>
    <path
      d="M48.776 33.831h-6.211l-3.953-10.518h3.176c2.541 0 4.165-1.059 4.165-2.824a1.757 1.757 0 00-.494-1.341 3.338 3.338 0 00-2.471-.706h-3.035l-1.341 4.871-2.824 10.518h-5.647l5.435-20.259H43.2c3.388 0 5.577.776 6.988 2.118a5.756 5.756 0 011.553 4.164c0 3.247-1.765 5.859-5.577 6.988l2.612 6.989zM54.353 18.231h5.506l-4.165 15.6h-5.506l4.165-15.6zm1.27-4.659h5.435l-.918 3.459h-5.434l.917-3.459zM59.224 27.76c0-5.577 3.953-9.882 8.4-9.882a5.166 5.166 0 014.729 2.471l1.906-6.848h5.506l-5.576 20.33h-5.506l.494-1.624a6.459 6.459 0 01-4.447 1.976c-3.035.001-5.506-2.329-5.506-6.423zm12.071-2.541a2.576 2.576 0 00-2.682-2.753c-2.047 0-3.812 1.976-3.812 4.447a2.539 2.539 0 002.682 2.753c2.047 0 3.812-2.118 3.812-4.447zM85.836 30.09a5.181 5.181 0 003.318-1.271l2.541 3.035a9.321 9.321 0 01-6.353 2.329c-4.588 0-7.482-2.682-7.482-6.918a9.371 9.371 0 019.388-9.388c4.588 0 6.635 3.106 6.635 6.494 0 1.09-.215 2.17-.635 3.176H82.871a2.69 2.69 0 002.965 2.543zm3.035-5.365c.081-.276.129-.56.141-.847a1.929 1.929 0 00-2.118-1.976 3.967 3.967 0 00-3.6 2.824l5.577-.001z"
      fill="#1A1A1A"></path>
    <path d="M86.825 4.659h5.506l-4.165 15.6H82.66l4.165-15.6zM88.096 0h5.435l-.918 3.459h-5.435L88.096 0z"
      fill="url(#b)" transform="translate(93.177 13.572)"></path>
    <path fill="url(#c)"
      d="M5.435.071H21.67l-1.27 4.8H9.741l-.847 3.035h9.671l-1.2 4.447H7.694l-.847 3.176h10.8l-1.271 4.8H0z"
      transform="translate(93.177 13.572)"></path>
    <path fill="url(#d)" d="M23.506 0h5.506l-5.577 20.259H17.93z" transform="translate(93.177 13.572)"></path>
    <path
      d="M35.083 16.518a5.181 5.181 0 003.318-1.271l2.541 3.035a9.321 9.321 0 01-6.353 2.329c-4.588 0-7.482-2.682-7.482-6.918a9.371 9.371 0 019.388-9.388c4.588 0 6.635 3.106 6.635 6.494 0 1.09-.215 2.17-.635 3.176H32.118a2.614 2.614 0 002.965 2.543zm3.035-5.365c.081-.276.129-.56.141-.847a1.929 1.929 0 00-2.118-1.976 3.967 3.967 0 00-3.6 2.824l5.577-.001z"
      fill="url(#e)" transform="translate(93.177 13.572)"></path>
    <path
      d="M43.836 13.836a9.4 9.4 0 019.388-9.459c3.671 0 5.788 1.906 6.635 4.306l-4.306 2.259a2.733 2.733 0 00-2.682-1.976c-2.047 0-3.741 2.259-3.741 4.659a2.4 2.4 0 002.4 2.612 4.2 4.2 0 002.965-1.412l3.318 2.894a8.213 8.213 0 01-6.706 3.035c-4.165-.071-7.271-2.753-7.271-6.918z"
      fill="url(#f)" transform="translate(93.177 13.572)"></path>
    <path
      d="M60.706 16.87c.034-.69.128-1.374.282-2.047l1.553-5.788h-1.835l1.2-4.447h1.835L64.8.635h5.506l-1.059 3.953h3.671l-1.2 4.447h-3.671l-1.341 4.941a5.537 5.537 0 00-.141.988c0 .635.353.988 1.271.988a5.894 5.894 0 002.047-.424l-1.2 4.588a9.8 9.8 0 01-3.247.565c-3.177-.069-4.73-1.481-4.73-3.811z"
      fill="url(#g)" transform="translate(93.177 13.572)"></path>
    <path
      d="M74.612 4.656h5.506l-.847 3.176c1.482-2.259 3.318-3.6 5.859-3.388l-1.553 5.791h-.494c-3.035 0-4.941 1.694-5.929 5.435l-1.271 4.729h-5.506l4.235-15.743z"
      fill="url(#h)" transform="translate(93.177 13.572)"></path>
    <path
      d="M91.836 13.836a9.4 9.4 0 019.388-9.459c3.671 0 5.788 1.906 6.635 4.306l-4.306 2.259a2.733 2.733 0 00-2.682-1.976c-2.047 0-3.741 2.259-3.741 4.659a2.4 2.4 0 002.4 2.612 4.2 4.2 0 002.965-1.412l3.318 2.894a8.213 8.213 0 01-6.706 3.035c-4.165-.071-7.271-2.753-7.271-6.918z"
      fill="url(#i)" transform="translate(93.177 13.572)"></path>
    <path
      d="M202.802 14.914h-1.553l.353-1.271h4.518l-.353 1.271h-1.553l-1.059 3.882h-1.482l1.129-3.882zm4.165-1.271h1.482l.706 1.976 1.765-1.976h1.624l-1.412 5.153h-1.412l.777-3.035-1.835 2.047h-.071l-.776-2.047-.777 3.035h-1.412l1.341-5.153z"
      fill="#9FC455"></path>
    <g fill="#1A1A1A">
      <path
        d="M93.389 42.937l-1.482-4.306h1.765l.847 2.965 2.471-2.965h1.906l-3.882 4.447-.706 2.682h-1.553zM97.413 43.36a3.256 3.256 0 013.176-3.176 2.427 2.427 0 012.612 2.541 3.256 3.256 0 01-3.176 3.177 2.427 2.427 0 01-2.612-2.542zm4.235-.565a1.168 1.168 0 00-1.2-1.271 1.758 1.758 0 00-1.553 1.765 1.168 1.168 0 001.2 1.271 1.81 1.81 0 001.553-1.764v-.001zM103.695 44.279c.009-.363.08-.721.212-1.059l.776-2.965h1.553l-.776 2.965a1.2 1.2 0 00-.071.494.688.688 0 00.776.706c.635 0 .988-.424 1.2-1.059l.847-3.035h1.553l-1.482 5.435h-1.553l.141-.565a2.12 2.12 0 01-1.482.706c-1.059-.07-1.694-.635-1.694-1.623zM111.037 40.326h1.553l-.282 1.129a2.306 2.306 0 012.047-1.2l-.424 1.624h-.071c-1.059 0-1.835.565-2.188 1.976l-.494 1.906h-1.553l1.412-5.435zM120.072 44.632c.435-.012.854-.16 1.2-.424l.706.988a3.177 3.177 0 01-2.118.706 2.3 2.3 0 01-2.541-2.4 3.28 3.28 0 013.247-3.247 2.078 2.078 0 012.259 2.118c.001.44-.095.873-.282 1.271h-3.741c.07.564.423.988 1.27.988zm1.271-2.047c.03-.116.054-.234.071-.353 0-.424-.282-.776-.918-.776a1.754 1.754 0 00-1.553 1.129h2.4zM124.942 38.631h2.753c1.694 0 2.4.776 2.4 1.765a1.81 1.81 0 01-1.553 1.765c.587.224.979.783.988 1.412 0 1.271-1.059 2.188-3.035 2.188h-3.529l1.976-7.13zm1.835 5.718c.776 0 1.271-.353 1.271-.918 0-.424-.353-.706-.988-.706h-1.694l-.424 1.553h1.835v.071zm.494-2.824c.776 0 1.271-.282 1.271-.847 0-.353-.282-.635-.988-.635h-1.482l-.424 1.482h1.623zM131.578 40.325h1.553l-1.482 5.435h-1.553l1.482-5.435zm.494-1.976h1.624l-.353 1.341h-1.624l.353-1.341zM134.966 38.349h1.553l-1.059 3.882 2.188-1.906h2.047l-2.612 2.118 1.2 3.318h-1.765l-.776-2.329-.776.635-.424 1.694h-1.552z">
      </path>
      <path
        d="M141.743 44.632c.435-.012.854-.16 1.2-.424l.706.988a3.177 3.177 0 01-2.118.706 2.3 2.3 0 01-2.541-2.4 3.28 3.28 0 013.247-3.247 2.078 2.078 0 012.259 2.118c.001.44-.095.873-.282 1.271h-3.741c.101.61.654 1.04 1.27.988zm1.271-2.047c.03-.116.054-.234.071-.353 0-.424-.282-.776-.918-.776a1.754 1.754 0 00-1.553 1.129h2.4zM147.672 44.913l.918-.918a2.337 2.337 0 001.694.706c.424 0 .635-.141.635-.494 0-.212-.282-.353-.635-.494-.847-.353-1.553-.706-1.553-1.624a1.979 1.979 0 012.188-1.906 3.062 3.062 0 012.118.776l-.847.988a2.145 2.145 0 00-1.412-.563c-.353 0-.635.141-.635.424 0 .212.282.353.706.565.706.282 1.482.706 1.482 1.553 0 1.2-.918 1.906-2.259 1.906a3.23 3.23 0 01-2.4-.919zM154.237 40.325h1.553l-.141.565a2.267 2.267 0 011.553-.706 2.1 2.1 0 012.118 2.329 3.22 3.22 0 01-3.035 3.318 1.822 1.822 0 01-1.694-.918l-.707 2.471h-1.553l1.906-7.059zm3.459 2.329a1.039 1.039 0 00-1.129-1.129 1.812 1.812 0 00-1.624 1.906 1.094 1.094 0 001.2 1.129 1.812 1.812 0 001.553-1.905v-.001zM162.637 44.632c.435-.012.854-.16 1.2-.424l.706.988a3.177 3.177 0 01-2.118.706 2.3 2.3 0 01-2.541-2.4 3.28 3.28 0 013.247-3.247 2.078 2.078 0 012.259 2.118c.001.44-.095.873-.282 1.271h-3.741c.08.623.647 1.064 1.27.988zm1.271-2.047c.03-.116.054-.234.071-.353 0-.424-.282-.776-.918-.776a1.754 1.754 0 00-1.553 1.129h2.4zM166.096 43.431a3.284 3.284 0 013.247-3.247 2.5 2.5 0 012.259 1.2l-1.2.847a1.287 1.287 0 00-1.2-.706 1.807 1.807 0 00-1.553 1.906 1.058 1.058 0 001.059 1.129c.462-.008.9-.214 1.2-.565l.777.988a2.871 2.871 0 01-2.047.847 2.3 2.3 0 01-2.542-2.399zM172.872 40.325h1.553l-1.482 5.435h-1.553l1.482-5.435zm.494-1.976h1.624l-.353 1.341h-1.624l.353-1.341zM174.496 44.42a2.071 2.071 0 012.329-1.976 5.505 5.505 0 011.553.212v-.071c0-.141.071-.212.071-.424 0-.353-.282-.635-1.059-.635a4.614 4.614 0 00-1.482.282l-.212-1.2a5.9 5.9 0 012.047-.353c1.482 0 2.188.635 2.188 1.694-.012.287-.06.571-.141.847l-.776 3.035h-1.482l.141-.635c-.406.47-1.004.73-1.624.706a1.508 1.508 0 01-1.553-1.482zm3.6-.706l.071-.141a4.072 4.072 0 00-.988-.212c-.635 0-1.129.353-1.129.847 0 .353.282.565.706.565a1.439 1.439 0 001.34-1.059zM182.331 38.349h1.553l-1.976 7.412h-1.553zM184.872 40.325h1.553l-1.482 5.435h-1.553l1.482-5.435zm.494-1.976h1.624l-.353 1.341h-1.624l.353-1.341zM186.214 44.913l.918-.918a2.337 2.337 0 001.694.706c.424 0 .635-.141.635-.494 0-.212-.282-.353-.635-.494-.847-.353-1.553-.706-1.553-1.624a1.979 1.979 0 012.188-1.906 3.062 3.062 0 012.118.776l-.847.988a2.145 2.145 0 00-1.412-.563c-.353 0-.635.141-.635.424 0 .212.282.353.706.565.706.282 1.482.706 1.482 1.553 0 1.2-.918 1.906-2.259 1.906a3.23 3.23 0 01-2.4-.919zM192.002 44.772c0-.212.071-.424.071-.706l.635-2.471h-.635l.353-1.341h.635l.353-1.412h1.553l-.353 1.412h1.271l-.353 1.341h-1.271l-.635 2.259a.711.711 0 01-.071.212c0 .212.141.353.423.353a3 3 0 00.776-.141l-.353 1.341a2.688 2.688 0 01-1.129.212c-.776 0-1.27-.423-1.27-1.059z">
      </path>
    </g>
  </g>
</svg>
