<svg width="195" height="50" viewBox="0 0 195 50" fill="none" xmlns="http://www.w3.org/2000/svg">
  <g clip-path="url(#clip0_219_132)">
    <path fill-rule="evenodd" clip-rule="evenodd"
      d="M155.067 10.1455C154.807 10.208 154.399 10.7316 154.161 11.3086C153.922 11.8856 150.777 18.6859 147.17 26.4202C143.564 34.1546 140.648 40.7384 140.69 41.0509C140.761 41.5711 141.014 41.6259 143.686 41.7001C145.292 41.7447 146.815 41.664 147.071 41.5208C147.327 41.3776 147.995 40.3182 148.555 39.1671L149.574 37.0736H155.528H161.483L162.549 39.2674C163.314 40.8404 163.8 41.5072 164.266 41.6234C164.623 41.7126 166.128 41.7481 167.611 41.7023C169.88 41.6322 170.32 41.5427 170.398 41.137C170.449 40.8717 167.982 35.2663 164.916 28.6805C161.849 22.0944 158.715 15.3441 157.95 13.6796C156.565 10.6646 155.965 9.92904 155.067 10.1455ZM180.291 10.7947C175.672 12.5986 173.425 16.8379 174.691 21.36C175.449 24.0677 178.574 26.956 182.607 28.6768C185.004 29.7001 186.315 30.5887 186.941 31.6148C187.717 32.8879 187.645 33.9191 186.708 34.9685C185.984 35.7785 185.768 35.854 184.222 35.8404C182.796 35.8276 182.131 35.6242 180.014 34.5518C178.632 33.8512 177.323 33.3461 177.106 33.429C176.565 33.6367 174.369 37.6756 174.482 38.2546C174.608 38.8978 176.938 40.4549 178.909 41.2137C181.234 42.1083 186.247 42.3174 188.388 41.6094C190.434 40.9327 191.718 40.089 193.113 38.5046C195.291 36.0305 195.832 32.26 194.439 29.2611C193.294 26.7952 191.428 25.2725 186.765 22.9992C182.422 20.8819 181.534 20.1296 181.534 18.5694C181.534 15.7881 185.022 15.5018 189.081 17.9498C190.512 18.8128 191.122 19.0413 191.455 18.8384C192.328 18.3069 194.67 14.5822 194.49 14.0131C194.261 13.2927 191.713 11.7759 189.304 10.9256C186.754 10.0259 182.421 9.96285 180.291 10.7947ZM0.189489 10.7006C0.0852272 10.8046 0 17.7583 0 26.1532C0 39.8092 0.0474434 41.4344 0.449432 41.5887C1.15994 41.8614 19.1318 41.7805 19.5705 41.5026C19.9966 41.233 20.2969 37.4293 20.004 36.0137L19.8435 35.2376L13.402 35.1614L6.96023 35.085L6.87926 32.1731L6.7983 29.2611H11.7986C14.702 29.2611 17.0293 29.1378 17.3483 28.9671C17.8338 28.7072 17.8977 28.3509 17.8977 25.8989C17.8977 24.12 17.7753 23.0023 17.5568 22.7839C17.3165 22.5435 15.6818 22.443 12.017 22.443H6.81818V19.7441V17.0452H13.2003C20.6386 17.0452 20.1574 17.2734 20.1389 13.7566C20.1205 10.2032 21.0841 10.5111 9.9804 10.5111C4.69972 10.5111 0.293466 10.5964 0.189489 10.7006ZM40.8418 10.8214C34.8955 11.7478 29.8136 16.4094 28.2639 22.3586C27.7224 24.4373 27.7224 27.835 28.2639 29.9137C29.8341 35.9413 35.6011 41.1015 41.2429 41.5265L42.4716 41.6191V37.7978V33.9768L40.9588 33.3944C37.6384 32.1168 35.798 29.5251 35.8045 26.1361C35.8085 24.0364 36.3756 22.5279 37.75 20.9626C38.6653 19.9202 40.7668 18.7498 41.7227 18.7498C42.0955 18.7498 42.3125 18.4796 42.4361 17.862C42.6864 16.6106 42.6577 10.8512 42.4006 10.7202C42.2835 10.6606 41.5821 10.7063 40.8418 10.8214ZM44.3815 14.5467L44.4602 18.5489L45.7645 18.9288C48.5131 19.7296 50.8102 22.7819 50.9276 25.7893C51.0699 29.4356 48.5724 32.795 45.0994 33.6296L44.3182 33.8174V37.7893C44.3182 39.9739 44.4142 41.7589 44.5312 41.7563C45.6295 41.7307 48.856 40.7776 50.2847 40.0563L52.0628 39.1589L53.233 40.2992C54.6119 41.6427 55.5571 41.9401 56.967 41.4748C59.4639 40.6506 59.7662 37.5981 57.5554 35.5327C56.6437 34.681 56.6437 34.5404 57.5528 32.5546C60.2011 26.77 58.9449 19.9063 54.3821 15.2293C52.1847 12.9771 48.5355 11.1398 45.3759 10.6952L44.3028 10.5444L44.3815 14.5467ZM68.2474 10.8432C67.6909 11.3998 67.7565 30.3046 68.3224 32.4771C69.4886 36.9543 72.3758 40.0839 76.654 41.5075C78.1332 41.9998 78.9611 42.0887 81.2054 41.9972C83.5588 41.9012 84.223 41.7569 85.8773 40.981C88.1528 39.9137 90.777 37.5302 91.8526 35.5543C93.2307 33.0222 93.4119 31.3702 93.4403 21.0753C93.4571 15.0376 93.3599 11.4123 93.1722 11.0611C92.9091 10.5694 92.5534 10.5111 89.8196 10.5111C87.8199 10.5111 86.6435 10.629 86.4205 10.8521C86.1685 11.104 86.0795 13.7489 86.0795 20.9896C86.0795 30.3921 86.0554 30.8364 85.477 32.031C83.8099 35.4751 78.6108 35.9611 76.3369 32.8859C75.9602 32.3768 75.5406 31.7043 75.404 31.3918C75.2676 31.0793 75.0889 26.2853 75.0068 20.7384L74.858 10.6532L71.7276 10.5734C69.5344 10.5177 68.4923 10.5984 68.2474 10.8432ZM102.975 10.8569C102.898 11.0575 102.868 18.0609 102.909 26.4202L102.983 41.6191H106.25H109.517V26.1361V10.6532L106.316 10.5728C103.913 10.5126 103.08 10.5833 102.975 10.8569ZM116.601 10.883C116.521 11.0913 116.492 12.531 116.538 14.0825L116.619 16.9032L120.099 16.983L123.58 17.0628V29.0711C123.58 38.0322 123.666 41.166 123.92 41.4202C124.278 41.7773 129.385 41.9137 130.232 41.5887C130.633 41.4353 130.682 40.081 130.682 29.2396V17.0628L134.162 16.983L137.642 16.9032V13.7782V10.6532L127.194 10.5788C118.697 10.518 116.719 10.5748 116.601 10.883ZM154.75 25.2839C153.193 28.6722 152.273 30.7398 152.273 30.8501C152.273 30.9137 153.736 30.9657 155.525 30.9657H158.777L158.493 30.1844C158.337 29.7546 157.592 28.1248 156.839 26.5623L155.468 23.7214L154.75 25.2839Z"
      fill="#4176FF" />
  </g>
  <defs>
    <clipPath id="clip0_219_132">
      <rect width="195" height="50" fill="white" />
    </clipPath>
  </defs>
</svg>
