<svg width="150" height="58" viewBox="0 0 150 58" fill="none" xmlns="http://www.w3.org/2000/svg">
<path d="M0 32.823L5.61 30.719C6.89 33.443 9.117 35.339 11.757 35.339C14.357 35.339 16.088 34.349 16.088 32.369C16.088 30.348 13.613 29.564 10.602 28.619C6.271 27.217 1.155 25.603 1.155 19.58C1.155 15.125 4.827 11.412 11.262 11.412C16.584 11.412 20.173 14.548 21.288 18.632L15.677 20.447C15.3217 19.4913 14.669 18.6748 13.8151 18.1177C12.9611 17.5605 11.9509 17.2922 10.933 17.352C8.664 17.352 7.426 18.177 7.426 19.704C7.426 21.189 9.658 21.891 12.336 22.798C16.712 24.201 22.362 26.012 22.362 32.41C22.362 38.021 17.617 41.28 11.595 41.28C8.99777 41.3573 6.44865 40.5682 4.34934 39.037C2.25002 37.5058 0.719871 35.3197 0 32.823H0ZM37.953 39.217C37.2879 39.9285 36.4725 40.4828 35.5663 40.8397C34.66 41.1965 33.6857 41.3469 32.714 41.28C28.259 41.28 24.794 38.97 24.794 34.348C24.794 29.727 29.169 27.583 33.334 27.583C34.9096 27.4936 36.4859 27.7471 37.954 28.326V27.17C37.954 25.19 36.593 24.199 34.53 24.199C32.1013 24.236 29.7418 25.0137 27.767 26.428L25.911 21.848C28.594 20.0918 31.7385 19.1729 34.945 19.208C38.865 19.208 43.897 20.198 43.897 27.458V40.784H37.957L37.953 39.216V39.217ZM37.953 34.762V32.864C36.7876 32.5246 35.5787 32.3585 34.365 32.371C32.303 32.371 30.653 32.867 30.653 34.393C30.653 35.547 31.807 36.249 33.867 36.249C35.3609 36.2516 36.8076 35.7256 37.951 34.764M53.148 11L48.136 13.813V40.867H53.148V11ZM56.27 30.224C56.27 23.458 60.148 19.209 66.296 19.209C71.617 19.209 75.784 22.423 75.784 29.192C75.8041 30.2256 75.7489 31.2594 75.619 32.285H62.129C62.253 35.09 64.067 36.204 66.296 36.204C67.2084 36.252 68.1186 36.0743 68.9459 35.6865C69.7732 35.2988 70.4922 34.713 71.039 33.981L74.504 37.446C73.5275 38.6794 72.2772 39.6685 70.8522 40.335C69.4272 41.0015 67.8666 41.3271 66.294 41.286C60.066 41.279 56.271 37.154 56.271 30.224H56.27ZM70.05 27.79C69.76 25.563 68.522 24.284 66.047 24.284C65.069 24.239 64.1129 24.5822 63.3868 25.2389C62.6606 25.8955 62.2233 26.8124 62.17 27.79H70.05ZM77.228 37.279L81.068 34.019C82.3957 35.3768 84.1676 36.2117 86.06 36.371C87.793 36.371 88.988 35.917 88.988 34.721C88.988 33.689 87.917 33.194 85.399 32.246C80.572 30.638 77.932 29.031 77.932 25.192C77.932 21.352 81.522 19.21 85.77 19.21C87.2661 19.1822 88.7502 19.4816 90.1184 20.0874C91.4866 20.6932 92.7059 21.5906 93.691 22.717L89.811 25.894C89.3004 25.3298 88.6762 24.8801 87.9794 24.5743C87.2825 24.2686 86.5289 24.1137 85.768 24.12C84.283 24.12 83.293 24.573 83.293 25.481C83.293 26.431 85.232 27.255 87.418 27.791C90.553 28.822 94.348 30.308 94.348 34.722C94.348 38.93 91.007 41.282 85.891 41.282C82.426 41.282 78.961 39.713 77.231 37.28M101.155 40.785H97.646L100.823 22.839H97.52L98.055 19.704H101.359L102.019 16.033C102.682 12.403 104.91 11.369 107.302 11.369C108.557 11.3795 109.785 11.7366 110.85 12.401L110.314 15.371C109.473 14.8784 108.52 14.6086 107.546 14.587C106.062 14.587 105.607 15.701 105.404 16.819L104.868 19.707H109.488L108.953 22.842H104.332L101.155 40.785ZM113.738 19.705H117.2L113.49 40.785H110.025L113.738 19.705ZM114.315 13.969C114.32 13.3023 114.579 12.6625 115.038 12.1796C115.498 11.6967 116.124 11.4068 116.79 11.369C117.165 11.3512 117.536 11.4502 117.853 11.6524C118.169 11.8547 118.415 12.1501 118.556 12.498C118.649 12.728 118.694 12.977 118.688 13.226C118.681 13.899 118.416 14.5436 117.947 15.0271C117.479 15.5105 116.843 15.7961 116.171 15.825C115.926 15.8295 115.682 15.7845 115.455 15.6928C115.228 15.601 115.021 15.4644 114.848 15.2911C114.675 15.1177 114.538 14.9112 114.446 14.6839C114.354 14.4566 114.31 14.2131 114.314 13.968M121.782 19.701H125.247L124.752 22.424C125.376 21.4922 126.208 20.7173 127.181 20.1597C128.154 19.6022 129.243 19.2772 130.363 19.21C131.382 19.1859 132.371 19.5535 133.127 20.237L132.055 23.579C131.274 22.9823 130.315 22.6641 129.332 22.675C127.558 22.675 124.505 24.076 123.639 28.905L121.535 40.786H118.07L121.782 19.701ZM131.889 32.41C131.889 25.068 136.304 19.21 142.656 19.21C147.071 19.21 150 21.685 150 27.171C149.98 28.6888 149.715 30.1935 149.216 31.627H135.479V32.162C135.479 35.875 137.129 38.102 140.058 38.102C141.823 38.0452 143.52 37.4075 144.885 36.288L146.532 38.764C144.598 40.3772 142.162 41.2668 139.643 41.28C134.818 41.28 131.889 37.568 131.889 32.41ZM146.411 28.571C146.54 27.9751 146.596 27.3655 146.576 26.756C146.494 23.332 144.472 22.342 142.451 22.342C138.779 22.342 136.716 25.312 135.974 28.572H146.411V28.571Z" fill="black"/>
</svg>
