  <svg
    xmlns="http://www.w3.org/2000/svg"
    viewBox="0 0 150 31">
    <path
      fill="currentColor"
      d="m43.275 20.245.939 2.666c-.996.64-2.19.96-3.584.96-2.788 0-4.181-1.571-4.181-4.714v-4.501h-1.856v-2.773h1.877V7.744h3.328v4.139h3.754v2.773h-3.754v4.18c0 1.324.519 1.985 1.557 1.985.54 0 1.18-.192 1.92-.576Zm12.561-2.795c0 .342-.035.81-.106 1.408h-8.597c.398 1.465 1.458 2.197 3.178 2.197 1.309 0 2.525-.376 3.648-1.13l1.323 2.282c-1.422 1.081-3.129 1.622-5.12 1.622-2.062 0-3.648-.59-4.757-1.771-1.095-1.18-1.643-2.63-1.643-4.352 0-1.749.57-3.207 1.707-4.373 1.123-1.166 2.61-1.749 4.458-1.749 1.707 0 3.122.526 4.245 1.579 1.11 1.052 1.664 2.481 1.664 4.287Zm-4.18-2.58c-.47-.385-1.046-.577-1.729-.577-.682 0-1.28.192-1.791.576-.498.384-.84.917-1.025 1.6h5.504c-.156-.683-.476-1.216-.96-1.6Zm13.862-1.75v-1.237h3.157v11.69h-3.157v-1.195c-.996.995-2.198 1.493-3.605 1.493-1.664 0-3.044-.59-4.139-1.77-1.08-1.18-1.621-2.66-1.621-4.437 0-1.735.547-3.186 1.642-4.352 1.081-1.152 2.454-1.728 4.117-1.728 1.408 0 2.61.512 3.606 1.536Zm-6.016 4.586c0 .868.277 1.607.832 2.219.583.597 1.301.896 2.154.896.868 0 1.586-.306 2.155-.918.583-.625.875-1.358.875-2.197s-.292-1.564-.875-2.176c-.583-.597-1.301-.896-2.154-.896-.854 0-1.572.3-2.155.896-.555.598-.832 1.323-.832 2.176Zm25.037-6.143c1.38 0 2.524.426 3.434 1.28.91.853 1.365 2.062 1.365 3.626v7.104H85.99v-6.464c0-.796-.199-1.408-.597-1.835-.384-.426-.903-.64-1.557-.64-.711 0-1.287.235-1.728.704-.441.47-.661 1.095-.661 1.878v6.357h-3.35V17.13c0-.768-.206-1.372-.618-1.813-.398-.455-.925-.683-1.579-.683-.697 0-1.266.235-1.706.704-.441.47-.662 1.103-.662 1.899v6.336h-3.349v-11.69h3.264v1.664a3.498 3.498 0 0 1 1.472-1.472 4.228 4.228 0 0 1 2.133-.512c.74 0 1.408.17 2.005.512.598.327 1.046.817 1.344 1.472.427-.626 1.01-1.11 1.75-1.451a5.443 5.443 0 0 1 2.389-.533Zm9.508 12.01h-3.35V7.339h3.264v6.1c.328-.54.818-.988 1.472-1.343.655-.356 1.394-.533 2.219-.533 1.251 0 2.318.42 3.2 1.258.882.84 1.322 2.041 1.322 3.605v7.147h-3.349V17.3c0-.84-.206-1.493-.618-1.963-.399-.469-.946-.704-1.643-.704-.754 0-1.365.256-1.834.768-.456.498-.683 1.16-.683 1.984v6.187Zm15.217.32c-1.849 0-3.364-.59-4.544-1.771-1.166-1.18-1.749-2.645-1.749-4.394 0-1.75.583-3.207 1.749-4.374 1.18-1.194 2.695-1.791 4.544-1.791 1.877 0 3.399.597 4.565 1.791 1.18 1.18 1.77 2.639 1.77 4.374 0 1.72-.59 3.185-1.77 4.394-1.181 1.18-2.702 1.77-4.565 1.77Zm2.986-6.187c0-.839-.291-1.55-.874-2.133-.583-.597-1.287-.896-2.112-.896-.825 0-1.529.299-2.112.896-.569.569-.853 1.28-.853 2.133 0 .882.284 1.614.853 2.198a2.877 2.877 0 0 0 2.112.874c.825 0 1.529-.291 2.112-.874a3.072 3.072 0 0 0 .874-2.198Zm9.583 6.165c-1.706 0-3.05-.469-4.031-1.408-.967-.938-1.451-2.24-1.451-3.903v-6.677h3.349v6.698c0 .683.185 1.223.555 1.621.384.398.91.597 1.578.597.669 0 1.188-.199 1.558-.597.384-.398.576-.939.576-1.621v-6.698h3.349v6.677c0 1.692-.484 3-1.451 3.925-.967.924-2.311 1.386-4.032 1.386Zm10.905.022c-2.062 0-3.726-.719-4.992-2.155l1.643-2.176c1.01 1.024 2.126 1.536 3.349 1.536.427 0 .768-.085 1.024-.256.27-.17.405-.398.405-.682 0-.342-.241-.626-.725-.854-.156-.07-.619-.242-1.387-.512a34.69 34.69 0 0 1-1.514-.597c-1.394-.668-2.091-1.7-2.091-3.093 0-1.081.413-1.949 1.238-2.603.839-.668 1.948-1.002 3.327-1.002 1.693 0 3.101.54 4.224 1.62l-1.557 2.177c-.882-.726-1.792-1.088-2.731-1.088-.369 0-.668.078-.896.235-.213.156-.32.355-.32.597 0 .426.349.754 1.046.981 1.308.427 2.232.782 2.773 1.067 1.322.71 1.984 1.706 1.984 2.986 0 1.095-.441 2.005-1.323 2.73-.867.726-2.026 1.089-3.477 1.089Zm17.147-6.443c0 .342-.035.81-.107 1.408h-8.596c.398 1.465 1.457 2.197 3.178 2.197 1.308 0 2.524-.376 3.648-1.13l1.323 2.282c-1.423 1.081-3.129 1.622-5.12 1.622-2.062 0-3.648-.59-4.757-1.771-1.095-1.18-1.643-2.63-1.643-4.352 0-1.749.569-3.207 1.707-4.373 1.123-1.166 2.609-1.749 4.458-1.749 1.707 0 3.122.526 4.245 1.579 1.11 1.052 1.664 2.481 1.664 4.287Zm-4.181-2.58c-.469-.385-1.045-.577-1.728-.577-.682 0-1.28.192-1.792.576-.497.384-.839.917-1.024 1.6h5.504c-.156-.683-.476-1.216-.96-1.6ZM4.714 9.682c-1.896-1.095-1.896-3.832 0-4.927l4.8-2.771c1.896-1.095 4.266.274 4.266 2.463V9.99c0 2.19-2.37 3.558-4.266 2.464l-4.8-2.771ZM23.487 4.755c1.896 1.095 1.896 3.832 0 4.927l-4.8 2.77c-1.896 1.095-4.266-.273-4.266-2.463V4.447c0-2.19 2.37-3.558 4.266-2.463l4.8 2.771ZM23.682 10.285c1.896-1.095 4.266.273 4.266 2.463v5.542c0 2.19-2.37 3.558-4.266 2.463l-4.8-2.77c-1.896-1.096-1.896-3.832 0-4.927l4.8-2.771Z"
    />
    <path
      fill="currentColor"
      d="M23.682 10.285c1.896-1.095 4.266.273 4.266 2.463v5.542c0 2.19-2.37 3.558-4.266 2.463l-4.8-2.77c-1.896-1.096-1.896-3.832 0-4.927l4.8-2.771ZM18.669 29.038c-1.896 1.094-4.267-.274-4.267-2.464v-5.542c0-2.19 2.37-3.558 4.267-2.463l4.8 2.771c1.896 1.095 1.896 3.832 0 4.927l-4.8 2.77Z"
    />
    <path
      fill="currentColor"
      d="M18.669 29.038c-1.896 1.094-4.267-.274-4.267-2.464v-5.542c0-2.19 2.37-3.558 4.267-2.463l4.8 2.771c1.896 1.095 1.896 3.832 0 4.927l-4.8 2.77ZM13.762 26.396c0 2.19-2.37 3.558-4.267 2.463l-4.8-2.771c-1.896-1.095-1.896-3.832 0-4.927l4.8-2.77c1.897-1.096 4.267.273 4.267 2.462v5.543Z"
    />
    <path
      fill="currentColor"
      d="M13.762 26.396c0 2.19-2.37 3.558-4.267 2.463l-4.8-2.771c-1.896-1.095-1.896-3.832 0-4.927l4.8-2.77c1.897-1.096 4.267.273 4.267 2.462v5.543ZM.004 12.605c0-2.19 2.37-3.558 4.266-2.463l4.8 2.771c1.896 1.095 1.896 3.832 0 4.927l-4.8 2.77C2.374 21.707.004 20.338.004 18.149v-5.543Z"
    />
    <path
      fill="currentColor"
      d="M13.762 26.396c0 2.19-2.37 3.558-4.267 2.463l-4.8-2.771c-1.896-1.095-1.896-3.832 0-4.927l4.8-2.77c1.897-1.096 4.267.273 4.267 2.462v5.543Z"
    />
  </svg>