<svg width="1265" height="487" viewBox="0 0 1265 487" fill="none" xmlns="http://www.w3.org/2000/svg">
<path d="M301.2 486.2C219.6 486.2 165.6 428.809 163.4 426.431C156 418.433 156 405.571 163.4 397.573C170.8 389.575 182.7 389.575 190 397.573C190.8 398.438 235.9 445.453 301.2 445.453C367.3 445.453 411.9 398.113 412.4 397.573C419.8 389.575 431.7 389.575 439.1 397.573C446.5 405.571 446.5 418.433 439.1 426.431C436.8 428.917 382.8 486.2 301.2 486.2Z" fill="#D02468"/>
<path d="M0 158.063H167.7V195.027H102.6V344.397H65.1V195.027H0V158.063Z" fill="#201C21"/>
<path d="M299.3 279.115H189.1C191.7 299.11 202.7 308.946 227 308.946C249.4 308.946 260.5 302.245 263.9 292.409H300.2C296.4 324.401 272.4 344.397 227 344.397C179.6 344.397 152.7 318.673 152.7 268.955C152.7 220.211 180.3 193.514 227 193.514C246.5 193.514 262.1 198.81 273.8 207.565C300.5 227.02 302.9 258.58 300.8 279.115H299.3ZM190.5 252.311H263.4C260.3 241.178 253.6 228.965 226.9 228.965C206.2 228.965 194.8 237.179 190.5 252.311Z" fill="#201C21"/>
<path d="M426.5 216.86V194.919H464V344.396H426.5V323.537H425.3C416 336.506 400.2 344.396 374.2 344.396C316.2 344.396 309.7 289.815 309.7 269.712C309.7 247.987 315.9 195.027 374.3 195.027C399.9 195.027 415.5 203.782 424.9 216.968H426.5V216.86ZM424.2 269.604C424.2 249.392 417.6 229.722 385.2 229.722C349.3 229.722 345.5 257.931 345.5 269.604C345.5 280.304 349.5 309.486 385.1 309.486C417.6 309.486 424.2 292.301 424.2 269.604Z" fill="#201C21"/>
<path d="M726.9 269.712V344.397H689.7V269.712C689.7 258.147 690.1 229.83 656.1 229.83C623.8 229.83 621.6 252.095 621.6 272.306L621.5 271.658V344.397H584.3V269.712C584.3 258.147 584.7 229.83 550.7 229.83C518.4 229.83 516.2 252.095 516.2 272.306V344.397H478.9V196.216H516.2V216.968H517.8C526.7 203.782 539 195.027 563.8 195.027C588.5 195.027 602.5 204.539 610.6 217.076V216.968H612.4C621.3 203.782 632.4 195.027 667 195.027C725.3 195.027 726.9 247.88 726.9 269.712Z" fill="#201C21"/>
<path d="M739.2 344.397V152.767H776.5V344.397H739.2Z" fill="#201C21"/>
<path d="M903.7 216.86V194.919H941.2V344.396H903.7V323.537H902.5C893.1 336.506 877.4 344.396 851.4 344.396C793.4 344.396 786.9 289.815 786.9 269.712C786.9 247.987 793.1 195.027 851.5 195.027C877.1 195.027 892.7 203.782 902.1 216.968H903.7V216.86ZM901.4 269.604C901.4 249.392 894.8 229.722 862.4 229.722C826.5 229.722 822.7 257.931 822.7 269.604C822.7 280.304 826.7 309.486 862.3 309.486C894.8 309.486 901.4 292.301 901.4 269.604Z" fill="#201C21"/>
<path d="M1100.4 269.712V344.397H1063.2V269.712C1063.2 258.147 1065.5 229.83 1029.6 229.83C997.3 229.83 992.4 252.095 992.4 272.306V344.397H954.9V195.027H992.4V216.968H994.2C1003.1 203.782 1015.7 195.027 1040.5 195.027C1098.8 195.027 1100.4 247.88 1100.4 269.712Z" fill="#201C21"/>
<path d="M1264.8 152.011V344.397H1227.3V323.537H1225.6C1216.2 336.507 1200.5 344.397 1174.5 344.397C1116.5 344.397 1110 289.815 1110 269.712C1110 247.879 1116.2 195.027 1174.6 195.027C1200.2 195.027 1215.8 203.674 1225.2 216.968H1227.3V152.011H1264.8ZM1224.4 269.604C1224.4 249.393 1217.8 229.722 1185.4 229.722C1149.5 229.722 1145.7 257.931 1145.7 269.604C1145.7 280.304 1149.7 309.486 1185.3 309.486C1217.8 309.486 1224.4 292.301 1224.4 269.604Z" fill="#201C21"/>
</svg>
